{
  "content": [],
  "pagination": {
    "currentPage": 1,
    "totalPages": 5,
    "hasNext": true,
    "totalItems": 60
  },
  "categories": {
    "trending": [
      {
        "id": 1,
        "title": "Inception",
        "year": 2010,
        "genre": ["Sci-Fi", "Action"],
        "rating": 8.8,
        "thumbnail": "https://image.tmdb.org/t/p/w500/xlaY2zyzMfkhk0HSC5VUwzoZPU1.jpg",
        "duration": 148,
        "description": "A thief who steals corporate secrets through the use of dream-sharing technology.",
        "cast": ["Leonardo DiCaprio", "Joseph Gordon-Levitt"],
        "watchProgress": 45
      },
      {
        "id": 2,
        "title": "Interstellar",
        "year": 2014,
        "genre": ["Sci-Fi", "Drama"],
        "rating": 8.7,
        "thumbnail": "https://image.tmdb.org/t/p/w500/bzONet3OeCTz5q9WOkGjVpOHMSR.jpg",
        "duration": 169,
        "description": "A team of explorers travel through a wormhole in space.",
        "cast": ["Matthew McConaughey", "Anne Hathaway"],
        "watchProgress": 0
      },
      {
        "id": 3,
        "title": "The Dark Knight",
        "year": 2008,
        "genre": ["Action", "Crime"],
        "rating": 9.0,
        "thumbnail": "https://image.tmdb.org/t/p/w500/xQPgyZOBhaz1GdCQIPf5A5VeFzO.jpg",
        "duration": 152,
        "description": "Batman raises the stakes in his war on crime.",
        "cast": ["Christian Bale", "Heath Ledger"],
        "watchProgress": 80
      },
      {
        "id": 4,
        "title": "Dune",
        "year": 2021,
        "genre": ["Sci-Fi", "Adventure"],
        "rating": 8.0,
        "thumbnail": "https://image.tmdb.org/t/p/w500/lr3cYNDlJcpT1EWzFH42aSIvkab.jpg",
        "duration": 155,
        "description": "Paul Atreides must travel to the most dangerous planet in the universe.",
        "cast": ["Timothée Chalamet", "Rebecca Ferguson"],
        "watchProgress": 0
      },
      {
        "id": 5,
        "title": "The Batman",
        "year": 2022,
        "genre": ["Action", "Crime"],
        "rating": 7.8,
        "thumbnail": "https://image.tmdb.org/t/p/w500/74xTEgt7R36Fpooo50r9T25onhq.jpg",
        "duration": 176,
        "description": "Batman ventures into Gotham City's underworld.",
        "cast": ["Robert Pattinson", "Zoë Kravitz"],
        "watchProgress": 10
      },
      {
        "id": 6,
        "title": "Blade Runner 2049",
        "year": 2017,
        "genre": ["Sci-Fi", "Drama"],
        "rating": 8.0,
        "thumbnail": "https://image.tmdb.org/t/p/w500/jLul37v1NcF8XpdSEh4RHsmGocA.jpg",
        "duration": 164,
        "description": "A young blade runner's discovery leads him to track down Rick Deckard.",
        "cast": ["Ryan Gosling", "Harrison Ford"],
        "watchProgress": 0
      },
      {
        "id": 7,
        "title": "The Matrix",
        "year": 1999,
        "genre": ["Action", "Sci-Fi"],
        "rating": 8.7,
        "thumbnail": "https://image.tmdb.org/t/p/w500/dXNAPwY7VrqMAo51EKhhCJfaGb5.jpg",
        "duration": 136,
        "description": "A computer hacker learns about the true nature of his reality.",
        "cast": ["Keanu Reeves", "Laurence Fishburne"],
        "watchProgress": 100
      },
      {
        "id": 8,
        "title": "Gladiator",
        "year": 2000,
        "genre": ["Action", "Drama"],
        "rating": 8.5,
        "thumbnail": "https://image.tmdb.org/t/p/w500/9xLIugjmparUuJBuoncNh4jEEaI.jpg",
        "duration": 155,
        "description": "A former Roman General sets out to exact vengeance.",
        "cast": ["Russell Crowe", "Joaquin Phoenix"],
        "watchProgress": 0
      },
      {
        "id": 9,
        "title": "Spider-Verse",
        "year": 2023,
        "genre": ["Animation", "Action"],
        "rating": 8.9,
        "thumbnail": "https://image.tmdb.org/t/p/w500/8Vt6mWEReuy4Of61Lnj5Xj704m8.jpg",
        "duration": 140,
        "description": "Miles Morales catapults across the Multiverse.",
        "cast": ["Shameik Moore", "Hailee Steinfeld"],
        "watchProgress": 20
      },
      {
        "id": 10,
        "title": "Top Gun: Maverick",
        "year": 2022,
        "genre": ["Action", "Drama"],
        "rating": 8.3,
        "thumbnail": "https://image.tmdb.org/t/p/w500/jeGvNOVMs5QIU1VaoGvnd3gSv0G.jpg",
        "duration": 130,
        "description": "Maverick is still pushing the envelope as a top naval aviator.",
        "cast": ["Tom Cruise", "Miles Teller"],
        "watchProgress": 0
      },
      {
        "id": 11,
        "title": "Oppenheimer",
        "year": 2023,
        "genre": ["Drama", "History"],
        "rating": 8.4,
        "thumbnail": "https://image.tmdb.org/t/p/w500/3yw39HIxi8bS3i0I75GygeOGVbL.jpg",
        "duration": 180,
        "description": "The story of J. Robert Oppenheimer and the atomic bomb.",
        "cast": ["Cillian Murphy", "Emily Blunt"],
        "watchProgress": 0
      },
      {
        "id": 12,
        "title": "Mad Max",
        "year": 2015,
        "genre": ["Action", "Adventure"],
        "rating": 8.1,
        "thumbnail": "https://image.tmdb.org/t/p/w500/hA2ple9q4qnwxp3hKVNhroipsir.jpg",
        "duration": 120,
        "description": "In a post-apocalyptic wasteland, a woman rebels against a tyrant.",
        "cast": ["Tom Hardy", "Charlize Theron"],
        "watchProgress": 0
      }
    ],
    "forYou": [],
    "newReleases": []
  }
}
